^C:\USERS\MAGSHIMIM\SOURCE\REPOS\ALMOGBAR_HW17\ALMOGBAR_HW17\DEBUG\ALMOGBAR_HW17.OBJ|C:\USERS\MAGSHIMIM\SOURCE\REPOS\ALMOGBAR_HW17\ALMOGBAR_HW17\DEBUG\CLIENT.OBJ|C:\USERS\MAGSHIMIM\SOURCE\REPOS\ALMOGBAR_HW17\ALMOGBAR_HW17\DEBUG\CRYPTODEVICE.OBJ|C:\USERS\MAGSHIMIM\SOURCE\REPOS\ALMOGBAR_HW17\ALMOGBAR_HW17\DEBUG\STDAFX.OBJ
C:\USERS\MAGSHIMIM\SOURCE\REPOS\ALMOGBAR_HW17\DEBUG\ALMOGBAR_HW17.EXE
C:\USERS\MAGSHIMIM\SOURCE\REPOS\ALMOGBAR_HW17\DEBUG\ALMOGBAR_HW17.ILK
C:\USERS\MAGSHIMIM\SOURCE\REPOS\ALMOGBAR_HW17\DEBUG\ALMOGBAR_HW17.PDB
